20 3
1 10 10 10
1 2 2 2
1 49 1 35
1 1 39 40
25 1 2 36
32 4 5 6
14 12 14 16
0 8 20 3
18 49 3 7
5 11 3 9
21 2 2 2
49 11 45 3
41 3 2 48
36 50 19 16
22 15 14 13
17 1 9 5
2 1 3 6
6 9 48 6
44 50 1 1 
11 3 5 4