1509
1103 1425 1163
1204 1488 1208
1081 1503 1227
1213 497 1121
1207 1311 1211
1228 1507 1112
1234 819 1230
192 843 1223
570 1150 1168
651 138 1103
1209 1466 1094
750 1131 1219
398 1459 1213
1226 740 1228
597 684 1175
1217 529 1215
1211 90 1158
279 981 1058
703 1483 100
1195 889 1019
0 1339 744
970 391 1205
1237 1251 1199
922 1501 557
539 1110 451
906 1352 1144
1130 1047 1224
624 1505 1189
1151 1443 933
361 1451 291
1030 958 991
889 866 0
1172 1220 487
1122 793 1180
1158 1168 656
1113 1402 1217
470 1390 884
677 561 378
986 41 769
727 1478 199
1069 767 245
1001 1414 336
838 935 687
1230 1281 839
434 1472 1185
1221 1204 901
1200 1003 718
1165 1186 150
1185 428 1225
938 1025 962
47 1325 793
505 316 1082
1190 1236 1196
1057 463 816
145 1365 1045
954 354 623
1238 1266 1202
857 1499 1006
1144 624 415
873 593 1137
1137 1068 1226
321 655 523
97 1089 590
1092 1508 1229
795 712 1129
773 0 862
1016 1378 1032
237 1493 948
1215 912 1070
1232 1296 1151
1179 274 917
817 1497 1193
1044 1434 1221
1236 232 50
1219 185 977
