45050
6 4 1
30 20 4
15 11 18
12 15 30
40 42 44
42 44 40
44 40 42
46 47 49
48 46 47
49 48 46
47 49 48
150 100 50
200 50 100
50 200 150
100 150 200
350 300 250
400 250 300
250 400 350
300 350 400
550 500 450
600 450 500
450 600 550
500 550 600
750 700 650
800 650 700
650 800 750
700 750 800
950 900 850
1000 850 900
850 1000 950
900 950 1000
1150 1100 1050
1200 1050 1100
1050 1200 1150
1100 1150 1200
1350 1300 1250
1400 1250 1300
1250 1400 1350
1300 1350 1400
1550 1500 1450
1600 1450 1500
1450 1600 1550
1500 1550 1600
1750 1700 1650
1800 1650 1700
1650 1800 1750
1700 1750 1800
1950 1900 1850
2000 1850 1900
1850 2000 1950
1900 1950 2000
2150 2100 2050
2200 2050 2100
2050 2200 2150
2100 2150 2200
2350 2300 2250
2400 2250 2300
2250 2400 2350
2300 2350 2400
2550 2500 2450
2600 2450 2500
2450 2600 2550
2500 2550 2600
2750 2700 2650
2800 2650 2700
2650 2800 2750
2700 2750 2800
2950 2900 2850
3000 2850 2900
2850 3000 2950
2900 2950 3000
3150 3100 3050
3200 3050 3100
3050 3200 3150
3100 3150 3200
3350 3300 3250
3400 3250 3300
3250 3400 3350
3300 3350 3400
3550 3500 3450
3600 3450 3500
3450 3600 3550
3500 3550 3600
3750 3700 3650
3800 3650 3700
3650 3800 3750
3700 3750 3800
3950 3900 3850
4000 3850 3900
3850 4000 3950
3900 3950 4000
4150 4100 4050
4200 4050 4100
4050 4200 4150
4100 4150 4200
4350 4300 4250
4400 4250 4300
4250 4400 4350
4300 4350 4400
4550 4500 4450
4600 4450 4500
4450 4600 4550
4500 4550 4600
4750 4700 4650
4800 4650 4700
4650 4800 4750
4700 4750 4800
4950 4900 4850
5000 4850 4900
4850 5000 4950
4900 4950 5000
5150 5100 5050
5200 5050 5100
5050 5200 5150
5100 5150 5200
5350 5300 5250
5400 5250 5300
5250 5400 5350
5300 5350 5400
5550 5500 5450
5600 5450 5500
5450 5600 5550
5500 5550 5600
5750 5700 5650
5800 5650 5700
5650 5800 5750
5700 5750 5800
5950 5900 5850
6000 5850 5900
5850 6000 5950
5900 5950 6000
6150 6100 6050
6200 6050 6100
6050 6200 6150
6100 6150 6200
6350 6300 6250
6400 6250 6300
6250 6400 6350
6300 6350 6400
6550 6500 6450
6600 6450 6500
6450 6600 6550
6500 6550 6600
6750 6700 6650
6800 6650 6700
6650 6800 6750
6700 6750 6800
6950 6900 6850
7000 6850 6900
6850 7000 6950
6900 6950 7000
7150 7100 7050
7200 7050 7100
7050 7200 7150
7100 7150 7200
7350 7300 7250
7400 7250 7300
7250 7400 7350
7300 7350 7400
7550 7500 7450
7600 7450 7500
7450 7600 7550
7500 7550 7600
7750 7700 7650
7800 7650 7700
7650 7800 7750
7700 7750 7800
7950 7900 7850
8000 7850 7900
7850 8000 7950
7900 7950 8000
8150 8100 8050
8200 8050 8100
8050 8200 8150
8100 8150 8200
8350 8300 8250
8400 8250 8300
8250 8400 8350
8300 8350 8400
8550 8500 8450
8600 8450 8500
8450 8600 8550
8500 8550 8600
8750 8700 8650
8800 8650 8700
8650 8800 8750
8700 8750 8800
8950 8900 8850
9000 8850 8900
8850 9000 8950
8900 8950 9000
9150 9100 9050
9200 9050 9100
9050 9200 9150
9100 9150 9200
9350 9300 9250
9400 9250 9300
9250 9400 9350
9300 9350 9400
9550 9500 9450
9600 9450 9500
9450 9600 9550
9500 9550 9600
9750 9700 9650
9800 9650 9700
9650 9800 9750
9700 9750 9800
9950 9900 9850
10000 9850 9900
9850 10000 9950
9900 9950 10000
10150 10100 10050
10200 10050 10100
10050 10200 10150
10100 10150 10200
10350 10300 10250
10400 10250 10300
10250 10400 10350
10300 10350 10400
10550 10500 10450
10600 10450 10500
10450 10600 10550
10500 10550 10600
10750 10700 10650
10800 10650 10700
10650 10800 10750
10700 10750 10800
10950 10900 10850
11000 10850 10900
10850 11000 10950
10900 10950 11000
11150 11100 11050
11200 11050 11100
11050 11200 11150
11100 11150 11200
11350 11300 11250
11400 11250 11300
11250 11400 11350
11300 11350 11400
11550 11500 11450
11600 11450 11500
11450 11600 11550
11500 11550 11600
11750 11700 11650
11800 11650 11700
11650 11800 11750
11700 11750 11800
11950 11900 11850
12000 11850 11900
11850 12000 11950
11900 11950 12000
12150 12100 12050
12200 12050 12100
12050 12200 12150
12100 12150 12200
12350 12300 12250
12400 12250 12300
12250 12400 12350
12300 12350 12400
12550 12500 12450
12600 12450 12500
12450 12600 12550
12500 12550 12600
12750 12700 12650
12800 12650 12700
12650 12800 12750
12700 12750 12800
12950 12900 12850
13000 12850 12900
12850 13000 12950
12900 12950 13000
13150 13100 13050
13200 13050 13100
13050 13200 13150
13100 13150 13200
13350 13300 13250
13400 13250 13300
13250 13400 13350
13300 13350 13400
13550 13500 13450
13600 13450 13500
13450 13600 13550
13500 13550 13600
13750 13700 13650
13800 13650 13700
13650 13800 13750
13700 13750 13800
13950 13900 13850
14000 13850 13900
13850 14000 13950
13900 13950 14000
14150 14100 14050
14200 14050 14100
14050 14200 14150
14100 14150 14200
14350 14300 14250
14400 14250 14300
14250 14400 14350
14300 14350 14400
14550 14500 14450
14600 14450 14500
14450 14600 14550
14500 14550 14600
14750 14700 14650
14800 14650 14700
14650 14800 14750
14700 14750 14800
14950 14900 14850
15000 14850 14900
14850 15000 14950
14900 14950 15000
15150 15100 15050
15200 15050 15100
15050 15200 15150
15100 15150 15200
15350 15300 15250
15400 15250 15300
15250 15400 15350
15300 15350 15400
15550 15500 15450
15600 15450 15500
15450 15600 15550
15500 15550 15600
15750 15700 15650
15800 15650 15700
15650 15800 15750
15700 15750 15800
15950 15900 15850
16000 15850 15900
15850 16000 15950
15900 15950 16000
16150 16100 16050
16200 16050 16100
16050 16200 16150
16100 16150 16200
16350 16300 16250
16400 16250 16300
16250 16400 16350
16300 16350 16400
16550 16500 16450
16600 16450 16500
16450 16600 16550
16500 16550 16600
16750 16700 16650
16800 16650 16700
16650 16800 16750
16700 16750 16800
16950 16900 16850
17000 16850 16900
16850 17000 16950
16900 16950 17000
17150 17100 17050
17200 17050 17100
17050 17200 17150
17100 17150 17200
17350 17300 17250
17400 17250 17300
17250 17400 17350
17300 17350 17400
17550 17500 17450
17600 17450 17500
17450 17600 17550
17500 17550 17600
17750 17700 17650
17800 17650 17700
17650 17800 17750
17700 17750 17800
17950 17900 17850
18000 17850 17900
17850 18000 17950
17900 17950 18000
18150 18100 18050
18200 18050 18100
18050 18200 18150
18100 18150 18200
18350 18300 18250
18400 18250 18300
18250 18400 18350
18300 18350 18400
18550 18500 18450
18600 18450 18500
18450 18600 18550
18500 18550 18600
18750 18700 18650
18800 18650 18700
18650 18800 18750
18700 18750 18800
18950 18900 18850
19000 18850 18900
18850 19000 18950
18900 18950 19000
19150 19100 19050
19200 19050 19100
19050 19200 19150
19100 19150 19200
19350 19300 19250
19400 19250 19300
19250 19400 19350
19300 19350 19400
19550 19500 19450
19600 19450 19500
19450 19600 19550
19500 19550 19600
19750 19700 19650
19800 19650 19700
19650 19800 19750
19700 19750 19800
19950 19900 19850
20000 19850 19900
19850 20000 19950
19900 19950 20000
20150 20100 20050
20200 20050 20100
20050 20200 20150
20100 20150 20200
20350 20300 20250
20400 20250 20300
20250 20400 20350
20300 20350 20400
20550 20500 20450
20600 20450 20500
20450 20600 20550
20500 20550 20600
20750 20700 20650
20800 20650 20700
20650 20800 20750
20700 20750 20800
20950 20900 20850
21000 20850 20900
20850 21000 20950
20900 20950 21000
21150 21100 21050
21200 21050 21100
21050 21200 21150
21100 21150 21200
21350 21300 21250
21400 21250 21300
21250 21400 21350
21300 21350 21400
21550 21500 21450
21600 21450 21500
21450 21600 21550
21500 21550 21600
21750 21700 21650
21800 21650 21700
21650 21800 21750
21700 21750 21800
21950 21900 21850
22000 21850 21900
21850 22000 21950
21900 21950 22000
22150 22100 22050
22200 22050 22100
22050 22200 22150
22100 22150 22200
22350 22300 22250
22400 22250 22300
22250 22400 22350
22300 22350 22400
22550 22500 22450
22600 22450 22500
22450 22600 22550
22500 22550 22600
22750 22700 22650
22800 22650 22700
22650 22800 22750
22700 22750 22800
22950 22900 22850
23000 22850 22900
22850 23000 22950
22900 22950 23000
23150 23100 23050
23200 23050 23100
23050 23200 23150
23100 23150 23200
23350 23300 23250
23400 23250 23300
23250 23400 23350
23300 23350 23400
23550 23500 23450
23600 23450 23500
23450 23600 23550
23500 23550 23600
23750 23700 23650
23800 23650 23700
23650 23800 23750
23700 23750 23800
23950 23900 23850
24000 23850 23900
23850 24000 23950
23900 23950 24000
24150 24100 24050
24200 24050 24100
24050 24200 24150
24100 24150 24200
24350 24300 24250
24400 24250 24300
24250 24400 24350
24300 24350 24400
24550 24500 24450
24600 24450 24500
24450 24600 24550
24500 24550 24600
24750 24700 24650
24800 24650 24700
24650 24800 24750
24700 24750 24800
24950 24900 24850
25000 24850 24900
24850 25000 24950
24900 24950 25000
25150 25100 25050
25200 25050 25100
25050 25200 25150
25100 25150 25200
25350 25300 25250
25400 25250 25300
25250 25400 25350
25300 25350 25400
25550 25500 25450
25600 25450 25500
25450 25600 25550
25500 25550 25600
25750 25700 25650
25800 25650 25700
25650 25800 25750
25700 25750 25800
25950 25900 25850
26000 25850 25900
25850 26000 25950
25900 25950 26000
26150 26100 26050
26200 26050 26100
26050 26200 26150
26100 26150 26200
26350 26300 26250
26400 26250 26300
26250 26400 26350
26300 26350 26400
26550 26500 26450
26600 26450 26500
26450 26600 26550
26500 26550 26600
26750 26700 26650
26800 26650 26700
26650 26800 26750
26700 26750 26800
26950 26900 26850
27000 26850 26900
26850 27000 26950
26900 26950 27000
27150 27100 27050
27200 27050 27100
27050 27200 27150
27100 27150 27200
27350 27300 27250
27400 27250 27300
27250 27400 27350
27300 27350 27400
27550 27500 27450
27600 27450 27500
27450 27600 27550
27500 27550 27600
27750 27700 27650
27800 27650 27700
27650 27800 27750
27700 27750 27800
27950 27900 27850
28000 27850 27900
27850 28000 27950
27900 27950 28000
28150 28100 28050
28200 28050 28100
28050 28200 28150
28100 28150 28200
28350 28300 28250
28400 28250 28300
28250 28400 28350
28300 28350 28400
28550 28500 28450
28600 28450 28500
28450 28600 28550
28500 28550 28600
28750 28700 28650
28800 28650 28700
28650 28800 28750
28700 28750 28800
28950 28900 28850
29000 28850 28900
28850 29000 28950
28900 28950 29000
29150 29100 29050
29200 29050 29100
29050 29200 29150
29100 29150 29200
29350 29300 29250
29400 29250 29300
29250 29400 29350
29300 29350 29400
29550 29500 29450
29600 29450 29500
29450 29600 29550
29500 29550 29600
29750 29700 29650
29800 29650 29700
29650 29800 29750
29700 29750 29800
29950 29900 29850
30000 29850 29900
29850 30000 29950
29900 29950 30000
30150 30100 30050
30200 30050 30100
30050 30200 30150
30100 30150 30200
30350 30300 30250
30400 30250 30300
30250 30400 30350
30300 30350 30400
30550 30500 30450
30600 30450 30500
30450 30600 30550
30500 30550 30600
30750 30700 30650
30800 30650 30700
30650 30800 30750
30700 30750 30800
30950 30900 30850
31000 30850 30900
30850 31000 30950
30900 30950 31000
31150 31100 31050
31200 31050 31100
31050 31200 31150
31100 31150 31200
31350 31300 31250
31400 31250 31300
31250 31400 31350
31300 31350 31400
31550 31500 31450
31600 31450 31500
31450 31600 31550
31500 31550 31600
31750 31700 31650
31800 31650 31700
31650 31800 31750
31700 31750 31800
31950 31900 31850
32000 31850 31900
31850 32000 31950
31900 31950 32000
32150 32100 32050
32200 32050 32100
32050 32200 32150
32100 32150 32200
32350 32300 32250
32400 32250 32300
32250 32400 32350
32300 32350 32400
32550 32500 32450
32600 32450 32500
32450 32600 32550
32500 32550 32600
32750 32700 32650
32800 32650 32700
32650 32800 32750
32700 32750 32800
32950 32900 32850
33000 32850 32900
32850 33000 32950
32900 32950 33000
33150 33100 33050
33200 33050 33100
33050 33200 33150
33100 33150 33200
33350 33300 33250
33400 33250 33300
33250 33400 33350
33300 33350 33400
33550 33500 33450
33600 33450 33500
33450 33600 33550
33500 33550 33600
33750 33700 33650
33800 33650 33700
33650 33800 33750
33700 33750 33800
33950 33900 33850
34000 33850 33900
33850 34000 33950
33900 33950 34000
34150 34100 34050
34200 34050 34100
34050 34200 34150
34100 34150 34200
34350 34300 34250
34400 34250 34300
34250 34400 34350
34300 34350 34400
34550 34500 34450
34600 34450 34500
34450 34600 34550
34500 34550 34600
34750 34700 34650
34800 34650 34700
34650 34800 34750
34700 34750 34800
34950 34900 34850
35000 34850 34900
34850 35000 34950
34900 34950 35000
35150 35100 35050
35200 35050 35100
35050 35200 35150
35100 35150 35200
35350 35300 35250
35400 35250 35300
35250 35400 35350
35300 35350 35400
35550 35500 35450
35600 35450 35500
35450 35600 35550
35500 35550 35600
35750 35700 35650
35800 35650 35700
35650 35800 35750
35700 35750 35800
35950 35900 35850
36000 35850 35900
35850 36000 35950
35900 35950 36000
36150 36100 36050
36200 36050 36100
36050 36200 36150
36100 36150 36200
36350 36300 36250
36400 36250 36300
36250 36400 36350
36300 36350 36400
36550 36500 36450
36600 36450 36500
36450 36600 36550
36500 36550 36600
36750 36700 36650
36800 36650 36700
36650 36800 36750
36700 36750 36800
36950 36900 36850
37000 36850 36900
36850 37000 36950
36900 36950 37000
37150 37100 37050
37200 37050 37100
37050 37200 37150
37100 37150 37200
37350 37300 37250
37400 37250 37300
37250 37400 37350
37300 37350 37400
37550 37500 37450
37600 37450 37500
37450 37600 37550
37500 37550 37600
37750 37700 37650
37800 37650 37700
37650 37800 37750
37700 37750 37800
37950 37900 37850
38000 37850 37900
37850 38000 37950
37900 37950 38000
38150 38100 38050
38200 38050 38100
38050 38200 38150
38100 38150 38200
38350 38300 38250
38400 38250 38300
38250 38400 38350
38300 38350 38400
38550 38500 38450
38600 38450 38500
38450 38600 38550
38500 38550 38600
38750 38700 38650
38800 38650 38700
38650 38800 38750
38700 38750 38800
38950 38900 38850
39000 38850 38900
38850 39000 38950
38900 38950 39000
39150 39100 39050
39200 39050 39100
39050 39200 39150
39100 39150 39200
39350 39300 39250
39400 39250 39300
39250 39400 39350
39300 39350 39400
39550 39500 39450
39600 39450 39500
39450 39600 39550
39500 39550 39600
39750 39700 39650
39800 39650 39700
39650 39800 39750
39700 39750 39800
39950 39900 39850
40000 39850 39900
39850 40000 39950
39900 39950 40000
40150 40100 40050
40200 40050 40100
40050 40200 40150
40100 40150 40200
40350 40300 40250
40400 40250 40300
40250 40400 40350
40300 40350 40400
40550 40500 40450
40600 40450 40500
40450 40600 40550
40500 40550 40600
40750 40700 40650
40800 40650 40700
40650 40800 40750
40700 40750 40800
40950 40900 40850
41000 40850 40900
40850 41000 40950
40900 40950 41000
41150 41100 41050
41200 41050 41100
41050 41200 41150
41100 41150 41200
41350 41300 41250
41400 41250 41300
41250 41400 41350
41300 41350 41400
41550 41500 41450
41600 41450 41500
41450 41600 41550
41500 41550 41600
41750 41700 41650
41800 41650 41700
41650 41800 41750
41700 41750 41800
41950 41900 41850
42000 41850 41900
41850 42000 41950
41900 41950 42000
42150 42100 42050
42200 42050 42100
42050 42200 42150
42100 42150 42200
42350 42300 42250
42400 42250 42300
42250 42400 42350
42300 42350 42400
42550 42500 42450
42600 42450 42500
42450 42600 42550
42500 42550 42600
42750 42700 42650
42800 42650 42700
42650 42800 42750
42700 42750 42800
42950 42900 42850
43000 42850 42900
42850 43000 42950
42900 42950 43000
43150 43100 43050
43200 43050 43100
43050 43200 43150
43100 43150 43200
43350 43300 43250
43400 43250 43300
43250 43400 43350
43300 43350 43400
43550 43500 43450
43600 43450 43500
43450 43600 43550
43500 43550 43600
43750 43700 43650
43800 43650 43700
43650 43800 43750
43700 43750 43800
43950 43900 43850
44000 43850 43900
43850 44000 43950
43900 43950 44000
44150 44100 44050
44200 44050 44100
44050 44200 44150
44100 44150 44200
44350 44300 44250
44400 44250 44300
44250 44400 44350
44300 44350 44400
44550 44500 44450
44600 44450 44500
44450 44600 44550
44500 44550 44600
44750 44700 44650
44800 44650 44700
44650 44800 44750
44700 44750 44800
44950 44900 44850
45000 44850 44900
44850 45000 44950
44900 44950 45000
