45050
4 5 1
18 23 4
15 11 28
12 33 18
44 42 40
40 44 42
42 40 44
48 47 46
49 46 47
46 49 48
47 48 49
100 150 50
50 200 100
200 50 150
150 100 200
300 350 250
350 250 300
250 300 350
500 450 400
400 500 450
450 400 500
650 600 550
550 650 600
600 550 650
750 800 700
800 700 750
700 750 800
900 950 850
950 850 900
850 900 950
1050 1100 1000
1000 1150 1050
1150 1000 1100
1100 1050 1150
1300 1250 1200
1200 1300 1250
1250 1200 1300
1400 1450 1350
1350 1500 1400
1500 1350 1450
1450 1400 1500
1600 1650 1550
1550 1700 1600
1700 1550 1650
1650 1600 1700
1800 1850 1750
1850 1750 1800
1750 1800 1850
1950 2000 1900
2000 1900 1950
1900 1950 2000
2100 2150 2050
2050 2200 2100
2200 2050 2150
2150 2100 2200
2350 2300 2250
2250 2350 2300
2300 2250 2350
2500 2450 2400
2400 2500 2450
2450 2400 2500
2600 2650 2550
2550 2700 2600
2700 2550 2650
2650 2600 2700
2800 2850 2750
2750 2900 2800
2900 2750 2850
2850 2800 2900
3050 3000 2950
2950 3050 3000
3000 2950 3050
3150 3200 3100
3100 3250 3150
3250 3100 3200
3200 3150 3250
3400 3350 3300
3300 3400 3350
3350 3300 3400
3550 3500 3450
3450 3550 3500
3500 3450 3550
3650 3700 3600
3700 3600 3650
3600 3650 3700
3800 3850 3750
3850 3750 3800
3750 3800 3850
3950 4000 3900
3900 4050 3950
4050 3900 4000
4000 3950 4050
4200 4150 4100
4250 4100 4150
4100 4250 4200
4150 4200 4250
4400 4350 4300
4300 4400 4350
4350 4300 4400
4500 4550 4450
4450 4600 4500
4600 4450 4550
4550 4500 4600
4750 4700 4650
4650 4750 4700
4700 4650 4750
4900 4850 4800
4950 4800 4850
4800 4950 4900
4850 4900 4950
5050 5100 5000
5000 5150 5050
5150 5000 5100
5100 5050 5150
5250 5300 5200
5200 5350 5250
5350 5200 5300
5300 5250 5350
5500 5450 5400
5400 5500 5450
5450 5400 5500
5650 5600 5550
5550 5650 5600
5600 5550 5650
5750 5800 5700
5700 5850 5750
5850 5700 5800
5800 5750 5850
6000 5950 5900
5900 6000 5950
5950 5900 6000
6100 6150 6050
6050 6200 6100
6200 6050 6150
6150 6100 6200
6300 6350 6250
6350 6250 6300
6250 6300 6350
6500 6450 6400
6400 6500 6450
6450 6400 6500
6650 6600 6550
6700 6550 6600
6550 6700 6650
6600 6650 6700
6850 6800 6750
6750 6850 6800
6800 6750 6850
6950 7000 6900
6900 7050 6950
7050 6900 7000
7000 6950 7050
7150 7200 7100
7200 7100 7150
7100 7150 7200
7300 7350 7250
7350 7250 7300
7250 7300 7350
7500 7450 7400
7400 7500 7450
7450 7400 7500
7600 7650 7550
7550 7700 7600
7700 7550 7650
7650 7600 7700
7800 7850 7750
7850 7750 7800
7750 7800 7850
8000 7950 7900
8050 7900 7950
7900 8050 8000
7950 8000 8050
8200 8150 8100
8100 8200 8150
8150 8100 8200
8350 8300 8250
8250 8350 8300
8300 8250 8350
8450 8500 8400
8400 8550 8450
8550 8400 8500
8500 8450 8550
8650 8700 8600
8700 8600 8650
8600 8650 8700
8800 8850 8750
8750 8900 8800
8900 8750 8850
8850 8800 8900
9000 9050 8950
8950 9100 9000
9100 8950 9050
9050 9000 9100
9200 9250 9150
9150 9300 9200
9300 9150 9250
9250 9200 9300
9400 9450 9350
9450 9350 9400
9350 9400 9450
9600 9550 9500
9500 9600 9550
9550 9500 9600
9750 9700 9650
9800 9650 9700
9650 9800 9750
9700 9750 9800
9900 9950 9850
9850 10000 9900
10000 9850 9950
9950 9900 10000
10100 10150 10050
10150 10050 10100
10050 10100 10150
10250 10300 10200
10200 10350 10250
10350 10200 10300
10300 10250 10350
10500 10450 10400
10400 10500 10450
10450 10400 10500
10600 10650 10550
10650 10550 10600
10550 10600 10650
10750 10800 10700
10700 10850 10750
10850 10700 10800
10800 10750 10850
10950 11000 10900
10900 11050 10950
11050 10900 11000
11000 10950 11050
11200 11150 11100
11100 11200 11150
11150 11100 11200
11300 11350 11250
11250 11400 11300
11400 11250 11350
11350 11300 11400
11500 11550 11450
11550 11450 11500
11450 11500 11550
11700 11650 11600
11600 11700 11650
11650 11600 11700
11800 11850 11750
11850 11750 11800
11750 11800 11850
11950 12000 11900
12000 11900 11950
11900 11950 12000
12100 12150 12050
12150 12050 12100
12050 12100 12150
12300 12250 12200
12350 12200 12250
12200 12350 12300
12250 12300 12350
12450 12500 12400
12500 12400 12450
12400 12450 12500
12600 12650 12550
12550 12700 12600
12700 12550 12650
12650 12600 12700
12800 12850 12750
12850 12750 12800
12750 12800 12850
12950 13000 12900
13000 12900 12950
12900 12950 13000
13100 13150 13050
13150 13050 13100
13050 13100 13150
13300 13250 13200
13200 13300 13250
13250 13200 13300
13450 13400 13350
13500 13350 13400
13350 13500 13450
13400 13450 13500
13600 13650 13550
13650 13550 13600
13550 13600 13650
13750 13800 13700
13700 13850 13750
13850 13700 13800
13800 13750 13850
14000 13950 13900
14050 13900 13950
13900 14050 14000
13950 14000 14050
14150 14200 14100
14100 14250 14150
14250 14100 14200
14200 14150 14250
14350 14400 14300
14400 14300 14350
14300 14350 14400
14500 14550 14450
14550 14450 14500
14450 14500 14550
14650 14700 14600
14600 14750 14650
14750 14600 14700
14700 14650 14750
14900 14850 14800
14800 14900 14850
14850 14800 14900
15000 15050 14950
14950 15100 15000
15100 14950 15050
15050 15000 15100
15250 15200 15150
15150 15250 15200
15200 15150 15250
15350 15400 15300
15300 15450 15350
15450 15300 15400
15400 15350 15450
15550 15600 15500
15500 15650 15550
15650 15500 15600
15600 15550 15650
15750 15800 15700
15700 15850 15750
15850 15700 15800
15800 15750 15850
15950 16000 15900
16000 15900 15950
15900 15950 16000
16100 16150 16050
16150 16050 16100
16050 16100 16150
16250 16300 16200
16200 16350 16250
16350 16200 16300
16300 16250 16350
16500 16450 16400
16550 16400 16450
16400 16550 16500
16450 16500 16550
16700 16650 16600
16600 16700 16650
16650 16600 16700
16850 16800 16750
16900 16750 16800
16750 16900 16850
16800 16850 16900
17000 17050 16950
16950 17100 17000
17100 16950 17050
17050 17000 17100
17200 17250 17150
17150 17300 17200
17300 17150 17250
17250 17200 17300
17400 17450 17350
17450 17350 17400
17350 17400 17450
17550 17600 17500
17500 17650 17550
17650 17500 17600
17600 17550 17650
17800 17750 17700
17700 17800 17750
17750 17700 17800
17900 17950 17850
17850 18000 17900
18000 17850 17950
17950 17900 18000
18100 18150 18050
18050 18200 18100
18200 18050 18150
18150 18100 18200
18300 18350 18250
18250 18400 18300
18400 18250 18350
18350 18300 18400
18500 18550 18450
18550 18450 18500
18450 18500 18550
18650 18700 18600
18600 18750 18650
18750 18600 18700
18700 18650 18750
18850 18900 18800
18800 18950 18850
18950 18800 18900
18900 18850 18950
19050 19100 19000
19000 19150 19050
19150 19000 19100
19100 19050 19150
19250 19300 19200
19300 19200 19250
19200 19250 19300
19400 19450 19350
19350 19500 19400
19500 19350 19450
19450 19400 19500
19600 19650 19550
19650 19550 19600
19550 19600 19650
19800 19750 19700
19700 19800 19750
19750 19700 19800
19900 19950 19850
19850 20000 19900
20000 19850 19950
19950 19900 20000
20100 20150 20050
20050 20200 20100
20200 20050 20150
20150 20100 20200
20300 20350 20250
20250 20400 20300
20400 20250 20350
20350 20300 20400
20500 20550 20450
20450 20600 20500
20600 20450 20550
20550 20500 20600
20750 20700 20650
20800 20650 20700
20650 20800 20750
20700 20750 20800
20900 20950 20850
20850 21000 20900
21000 20850 20950
20950 20900 21000
21150 21100 21050
21050 21150 21100
21100 21050 21150
21250 21300 21200
21200 21350 21250
21350 21200 21300
21300 21250 21350
21450 21500 21400
21400 21550 21450
21550 21400 21500
21500 21450 21550
21650 21700 21600
21600 21750 21650
21750 21600 21700
21700 21650 21750
21850 21900 21800
21900 21800 21850
21800 21850 21900
22050 22000 21950
21950 22050 22000
22000 21950 22050
22150 22200 22100
22100 22250 22150
22250 22100 22200
22200 22150 22250
22350 22400 22300
22300 22450 22350
22450 22300 22400
22400 22350 22450
22550 22600 22500
22600 22500 22550
22500 22550 22600
22700 22750 22650
22750 22650 22700
22650 22700 22750
22900 22850 22800
22950 22800 22850
22800 22950 22900
22850 22900 22950
23050 23100 23000
23000 23150 23050
23150 23000 23100
23100 23050 23150
23250 23300 23200
23300 23200 23250
23200 23250 23300
23450 23400 23350
23350 23450 23400
23400 23350 23450
23600 23550 23500
23500 23600 23550
23550 23500 23600
23750 23700 23650
23650 23750 23700
23700 23650 23750
23850 23900 23800
23900 23800 23850
23800 23850 23900
24000 24050 23950
23950 24100 24000
24100 23950 24050
24050 24000 24100
24200 24250 24150
24150 24300 24200
24300 24150 24250
24250 24200 24300
24450 24400 24350
24500 24350 24400
24350 24500 24450
24400 24450 24500
24600 24650 24550
24550 24700 24600
24700 24550 24650
24650 24600 24700
24800 24850 24750
24750 24900 24800
24900 24750 24850
24850 24800 24900
25000 25050 24950
25050 24950 25000
24950 25000 25050
25150 25200 25100
25100 25250 25150
25250 25100 25200
25200 25150 25250
25350 25400 25300
25300 25450 25350
25450 25300 25400
25400 25350 25450
25550 25600 25500
25500 25650 25550
25650 25500 25600
25600 25550 25650
25800 25750 25700
25700 25800 25750
25750 25700 25800
25900 25950 25850
25850 26000 25900
26000 25850 25950
25950 25900 26000
26150 26100 26050
26200 26050 26100
26050 26200 26150
26100 26150 26200
26300 26350 26250
26350 26250 26300
26250 26300 26350
26500 26450 26400
26400 26500 26450
26450 26400 26500
26650 26600 26550
26550 26650 26600
26600 26550 26650
26750 26800 26700
26700 26850 26750
26850 26700 26800
26800 26750 26850
26950 27000 26900
26900 27050 26950
27050 26900 27000
27000 26950 27050
27150 27200 27100
27100 27250 27150
27250 27100 27200
27200 27150 27250
27350 27400 27300
27400 27300 27350
27300 27350 27400
27500 27550 27450
27450 27600 27500
27600 27450 27550
27550 27500 27600
27750 27700 27650
27650 27750 27700
27700 27650 27750
27850 27900 27800
27800 27950 27850
27950 27800 27900
27900 27850 27950
28050 28100 28000
28100 28000 28050
28000 28050 28100
28200 28250 28150
28150 28300 28200
28300 28150 28250
28250 28200 28300
28450 28400 28350
28350 28450 28400
28400 28350 28450
28550 28600 28500
28500 28650 28550
28650 28500 28600
28600 28550 28650
28750 28800 28700
28700 28850 28750
28850 28700 28800
28800 28750 28850
28950 29000 28900
29000 28900 28950
28900 28950 29000
29100 29150 29050
29150 29050 29100
29050 29100 29150
29250 29300 29200
29200 29350 29250
29350 29200 29300
29300 29250 29350
29450 29500 29400
29400 29550 29450
29550 29400 29500
29500 29450 29550
29650 29700 29600
29600 29750 29650
29750 29600 29700
29700 29650 29750
29850 29900 29800
29800 29950 29850
29950 29800 29900
29900 29850 29950
30050 30100 30000
30100 30000 30050
30000 30050 30100
30200 30250 30150
30150 30300 30200
30300 30150 30250
30250 30200 30300
30450 30400 30350
30500 30350 30400
30350 30500 30450
30400 30450 30500
30600 30650 30550
30550 30700 30600
30700 30550 30650
30650 30600 30700
30800 30850 30750
30750 30900 30800
30900 30750 30850
30850 30800 30900
31050 31000 30950
30950 31050 31000
31000 30950 31050
31200 31150 31100
31100 31200 31150
31150 31100 31200
31300 31350 31250
31250 31400 31300
31400 31250 31350
31350 31300 31400
31550 31500 31450
31600 31450 31500
31450 31600 31550
31500 31550 31600
31700 31750 31650
31650 31800 31700
31800 31650 31750
31750 31700 31800
31900 31950 31850
31850 32000 31900
32000 31850 31950
31950 31900 32000
32150 32100 32050
32050 32150 32100
32100 32050 32150
32300 32250 32200
32200 32300 32250
32250 32200 32300
32400 32450 32350
32350 32500 32400
32500 32350 32450
32450 32400 32500
32600 32650 32550
32550 32700 32600
32700 32550 32650
32650 32600 32700
32800 32850 32750
32750 32900 32800
32900 32750 32850
32850 32800 32900
33050 33000 32950
32950 33050 33000
33000 32950 33050
33200 33150 33100
33100 33200 33150
33150 33100 33200
33300 33350 33250
33250 33400 33300
33400 33250 33350
33350 33300 33400
33550 33500 33450
33450 33550 33500
33500 33450 33550
33650 33700 33600
33600 33750 33650
33750 33600 33700
33700 33650 33750
33900 33850 33800
33800 33900 33850
33850 33800 33900
34000 34050 33950
33950 34100 34000
34100 33950 34050
34050 34000 34100
34200 34250 34150
34250 34150 34200
34150 34200 34250
34400 34350 34300
34450 34300 34350
34300 34450 34400
34350 34400 34450
34550 34600 34500
34500 34650 34550
34650 34500 34600
34600 34550 34650
34750 34800 34700
34700 34850 34750
34850 34700 34800
34800 34750 34850
34950 35000 34900
35000 34900 34950
34900 34950 35000
35100 35150 35050
35150 35050 35100
35050 35100 35150
35250 35300 35200
35300 35200 35250
35200 35250 35300
35400 35450 35350
35350 35500 35400
35500 35350 35450
35450 35400 35500
35600 35650 35550
35550 35700 35600
35700 35550 35650
35650 35600 35700
35800 35850 35750
35750 35900 35800
35900 35750 35850
35850 35800 35900
36050 36000 35950
36100 35950 36000
35950 36100 36050
36000 36050 36100
36250 36200 36150
36300 36150 36200
36150 36300 36250
36200 36250 36300
36450 36400 36350
36500 36350 36400
36350 36500 36450
36400 36450 36500
36600 36650 36550
36650 36550 36600
36550 36600 36650
36750 36800 36700
36700 36850 36750
36850 36700 36800
36800 36750 36850
37000 36950 36900
37050 36900 36950
36900 37050 37000
36950 37000 37050
37200 37150 37100
37250 37100 37150
37100 37250 37200
37150 37200 37250
37350 37400 37300
37300 37450 37350
37450 37300 37400
37400 37350 37450
37550 37600 37500
37500 37650 37550
37650 37500 37600
37600 37550 37650
37750 37800 37700
37700 37850 37750
37850 37700 37800
37800 37750 37850
37950 38000 37900
37900 38050 37950
38050 37900 38000
38000 37950 38050
38200 38150 38100
38100 38200 38150
38150 38100 38200
38300 38350 38250
38350 38250 38300
38250 38300 38350
38450 38500 38400
38400 38550 38450
38550 38400 38500
38500 38450 38550
38700 38650 38600
38600 38700 38650
38650 38600 38700
38850 38800 38750
38750 38850 38800
38800 38750 38850
38950 39000 38900
38900 39050 38950
39050 38900 39000
39000 38950 39050
39150 39200 39100
39100 39250 39150
39250 39100 39200
39200 39150 39250
39350 39400 39300
39300 39450 39350
39450 39300 39400
39400 39350 39450
39550 39600 39500
39500 39650 39550
39650 39500 39600
39600 39550 39650
39800 39750 39700
39700 39800 39750
39750 39700 39800
39950 39900 39850
39850 39950 39900
39900 39850 39950
40050 40100 40000
40100 40000 40050
40000 40050 40100
40200 40250 40150
40250 40150 40200
40150 40200 40250
40400 40350 40300
40300 40400 40350
40350 40300 40400
40500 40550 40450
40550 40450 40500
40450 40500 40550
40700 40650 40600
40600 40700 40650
40650 40600 40700
40800 40850 40750
40850 40750 40800
40750 40800 40850
40950 41000 40900
40900 41050 40950
41050 40900 41000
41000 40950 41050
41150 41200 41100
41100 41250 41150
41250 41100 41200
41200 41150 41250
41350 41400 41300
41400 41300 41350
41300 41350 41400
41500 41550 41450
41450 41600 41500
41600 41450 41550
41550 41500 41600
41700 41750 41650
41650 41800 41700
41800 41650 41750
41750 41700 41800
41900 41950 41850
41950 41850 41900
41850 41900 41950
42100 42050 42000
42150 42000 42050
42000 42150 42100
42050 42100 42150
42250 42300 42200
42300 42200 42250
42200 42250 42300
42450 42400 42350
42350 42450 42400
42400 42350 42450
42600 42550 42500
42500 42600 42550
42550 42500 42600
42700 42750 42650
42650 42800 42700
42800 42650 42750
42750 42700 42800
42900 42950 42850
42850 43000 42900
43000 42850 42950
42950 42900 43000
43150 43100 43050
43200 43050 43100
43050 43200 43150
43100 43150 43200
43300 43350 43250
43250 43400 43300
43400 43250 43350
43350 43300 43400
43500 43550 43450
43450 43600 43500
43600 43450 43550
43550 43500 43600
43750 43700 43650
43650 43750 43700
43700 43650 43750
43850 43900 43800
43900 43800 43850
43800 43850 43900
44000 44050 43950
43950 44100 44000
44100 43950 44050
44050 44000 44100
44200 44250 44150
44150 44300 44200
44300 44150 44250
44250 44200 44300
44400 44450 44350
44450 44350 44400
44350 44400 44450
44550 44600 44500
44500 44650 44550
44650 44500 44600
44600 44550 44650
44750 44800 44700
44700 44850 44750
44850 44700 44800
44800 44750 44850
44950 45000 44900
45000 44900 44950
44900 44950 45000
