7676
3789 5025 3683
5613 5346 5194
7369 7412 7249
5749 5692 5432
6585 7141 7556
2233 3246 3560
6857 6283 6515
7502 6913 7195
7259 5486 4909
4798 5521 4690
6273 6680 6396
4835 6438 6805
6523 6826 5866
4269 3701 3765
1673 2379 1234
2994 2643 3139
1241 548 1611
2416 2335 3310
1482 1231 2074
6767 6855 6918
898 148 45
6707 6797 6336
7579 7516 7481
1626 0 1282
5951 4988 5997
1861 3537 2880
3707 1468 4123
7629 7359 7405
2596 1884 2392
2049 98 1752
600 698 794
5477 6252 6486
3290 2599 3096
5267 5590 5701
550 398 1564
1094 1421 1890
4422 3204 3352
7002 7305 7222
5511 5206 4201
7315 7197 6834
1908 2731 2120
3416 4182 4981
4687 3862 4239
5337 5134 4945
1434 1087 2792
3992 3942 4045
7604 6220 7379
4152 1975 4579
2002 2775 2527
6177 4022 5466
3830 4764 4727
5579 5276 4505
4761 4650 4353
6973 6345 6631
3458 2246 2166
4346 4574 4616
2775 3742 2572
6017 5556 5602
4032 4102 3966
2461 2819 1798
2863 2948 2704
3164 2991 2748
2095 3782 2257
7175 6768 7114
5783 5726 4873
6461 4301 5330
6399 7224 6276
400 2467 1423
5302 6620 6153
6337 6500 6246
947 1327 95
6797 6650 6366
500 1135 445
4612 4222 4764
2686 3077 2437
5442 6059 5568
4724 3902 4653
6241 6407 6184
2506 1700 1376
3248 1838 2028
5407 5170 5017
3206 3034 4084
6677 7085 6091
7450 7251 7301
7031 7542 6776
2141 5062 3519
7203 7490 7168
2325 2201 1517
3584 1608 3268
4574 3330 3394
5885 6530 6060
849 1930 1090
6305 7169 4467
3080 2291 2212
5089 5451 5932
3666 2423 2347
3122 3414 4006
4536 4062 4391
5125 3982 4837
4498 4379 5767
3037 2687 1705
6368 5861 5965
3542 4802 3225
1720 348 245
6049 7057 6602
1578 1279 1658
1290 991 1138
250 1654 345
5545 5828 5635
3500 3372 3724
1338 1792 3053
2907 2555 2836
6827 6469 7030
6616 7619 7086
3871 3619 3436
1045 1746 943
4308 5241 5089
2551 797 3010
750 648 1041
5161 7332 6747
6081 4877 5364
7231 5658 7327
7476 7278 7506
4981 5993 6689
4460 4340 3806
2641 3288 3601
4072 4142 3182
6737 6590 6660
800 748 1329
7554 7464 7431
3625 3455 4315
5715 5624 5899
200 298 395
7118 7000 7058
4230 6188 5500
996 1374 894
4872 3660 2482
5984 5794 6456
6944 6314 6573
2187 2111 1844
100 48 195
5851 4535 5534
5647 5927 4542
1767 2511 495
5197 4262 5262
3374 4726 3926
7423 6156 6890
2819 2905 2967
1955 2020 645
6492 6124 6718
7089 6971 6215
3912 3822 3478
4945 5098 6122
1386 2156 1982
4191 4496 4429
4112 3578 5053
1192 448 545
50 1562 145
700 598 844
5681 5416 5833
3952 4914 3846
1530 498 595
7528 7568 7353
6209 4951 4162
5017 4688 5398
7147 6739 6862
4909 4840 4801
4384 4612 4277
1143 1515 992
450 248 1936
7060 7594 6974
1814 1183 1470
5372 5760 5159
6886 6710 5668
4650 5894 5228
0 895 695
300 2066 2302
650 846 744
3332 3496 3886
6915 5311 6544
6113 5960 5800
7287 7113 7002
2371 943 2924
5232 5381 5296
2731 3120 0
3748 4457 3642
6430 6092 5734
350 198 295
7653 6026 7456
150 1039 1186
2951 3162 2616
6647 7029 6029
7396 7438 7275
5817 6942 7531
7342 7386 7141
2279 2862 2660
6145 6884 6946
6554 6376 6426
5918 6560 6306
5053 4418 5124
